{
   "3": {
      "domain": "Cardiovascular / Pulmonary",
      "entities": [
         {
            "BeginOffset": 19,
            "Category": "ANATOMY",
            "EndOffset": 23,
            "Id": 0,
            "Score": 0.9345768094062805,
            "Text": "Left",
            "Traits": [],
            "Type": "DIRECTION"
         },
         {
            "Attributes": [
               {
                  "BeginOffset": 19,
                  "Category": "ANATOMY",
                  "EndOffset": 23,
                  "Id": 0,
                  "RelationshipScore": 0.9970656037330627,
                  "RelationshipType": "DIRECTION",
                  "Score": 0.9345768094062805,
                  "Text": "Left",
                  "Traits": [],
                  "Type": "DIRECTION"
               },
               {
                  "BeginOffset": 48,
                  "Category": "ANATOMY",
                  "EndOffset": 52,
                  "Id": 1,
                  "RelationshipScore": 0.9973214268684387,
                  "RelationshipType": "DIRECTION",
                  "Score": 0.7577894330024719,
                  "Text": "left",
                  "Traits": [],
                  "Type": "DIRECTION"
               },
               {
                  "BeginOffset": 96,
                  "Category": "ANATOMY",
                  "EndOffset": 101,
                  "Id": 2,
                  "RelationshipScore": 0.8628683686256409,
                  "RelationshipType": "DIRECTION",
                  "Score": 0.8979178667068481,
                  "Text": "right",
                  "Traits": [],
                  "Type": "DIRECTION"
               },
               {
                  "BeginOffset": 106,
                  "Category": "ANATOMY",
                  "EndOffset": 110,
                  "Id": 3,
                  "RelationshipScore": 0.7330513596534729,
                  "RelationshipType": "DIRECTION",
                  "Score": 0.9797587394714355,
                  "Text": "left",
                  "Traits": [],
                  "Type": "DIRECTION"
               },
               {
                  "BeginOffset": 111,
                  "Category": "ANATOMY",
                  "EndOffset": 120,
                  "Id": 4,
                  "RelationshipScore": 0.5326368808746338,
                  "RelationshipType": "SYSTEM_ORGAN_SITE",
                  "Score": 0.7990790605545044,
                  "Text": "ventricle",
                  "Traits": [],
                  "Type": "SYSTEM_ORGAN_SITE"
               }
            ],
            "BeginOffset": 24,
            "Category": "MEDICAL_CONDITION",
            "EndOffset": 42,
            "Id": 1,
            "Score": 0.6533310413360596,
            "Text": "atrial enlargement",
            "Traits": [
               {
                  "Name": "SIGN",
                  "Score": 0.6302698850631714
               },
               {
                  "Name": "DIAGNOSIS",
                  "Score": 0.6712599992752075
               }
            ],
            "Type": "DX_NAME"
         },
         {
            "BeginOffset": 48,
            "Category": "ANATOMY",
            "EndOffset": 52,
            "Id": 2,
            "Score": 0.7577894330024719,
            "Text": "left",
            "Traits": [],
            "Type": "DIRECTION"
         },
         {
            "BeginOffset": 96,
            "Category": "ANATOMY",
            "EndOffset": 101,
            "Id": 3,
            "Score": 0.8979178667068481,
            "Text": "right",
            "Traits": [],
            "Type": "DIRECTION"
         },
         {
            "BeginOffset": 106,
            "Category": "ANATOMY",
            "EndOffset": 110,
            "Id": 4,
            "Score": 0.9797587394714355,
            "Text": "left",
            "Traits": [],
            "Type": "DIRECTION"
         },
         {
            "BeginOffset": 111,
            "Category": "ANATOMY",
            "EndOffset": 120,
            "Id": 5,
            "Score": 0.7990790605545044,
            "Text": "ventricle",
            "Traits": [],
            "Type": "SYSTEM_ORGAN_SITE"
         },
         {
            "BeginOffset": 133,
            "Category": "ANATOMY",
            "EndOffset": 135,
            "Id": 6,
            "Score": 0.8793970346450806,
            "Text": "LV",
            "Traits": [],
            "Type": "SYSTEM_ORGAN_SITE"
         },
         {
            "BeginOffset": 159,
            "Category": "ANATOMY",
            "EndOffset": 163,
            "Id": 7,
            "Score": 0.7117052674293518,
            "Text": "left",
            "Traits": [],
            "Type": "DIRECTION"
         },
         {
            "BeginOffset": 213,
            "Category": "ANATOMY",
            "EndOffset": 215,
            "Id": 8,
            "Score": 0.7783842086791992,
            "Text": "LV",
            "Traits": [],
            "Type": "SYSTEM_ORGAN_SITE"
         },
         {
            "BeginOffset": 243,
            "Category": "MEDICAL_CONDITION",
            "EndOffset": 263,
            "Id": 9,
            "Score": 0.873033344745636,
            "Text": "pericardial effusion",
            "Traits": [
               {
                  "Name": "SIGN",
                  "Score": 0.47929131984710693
               },
               {
                  "Name": "DIAGNOSIS",
                  "Score": 0.7665219306945801
               },
               {
                  "Name": "NEGATION",
                  "Score": 0.9673687815666199
               }
            ],
            "Type": "DX_NAME"
         },
         {
            "BeginOffset": 290,
            "Category": "ANATOMY",
            "EndOffset": 302,
            "Id": 10,
            "Score": 0.9803586006164551,
            "Text": "aortic valve",
            "Traits": [],
            "Type": "SYSTEM_ORGAN_SITE"
         },
         {
            "BeginOffset": 304,
            "Category": "ANATOMY",
            "EndOffset": 316,
            "Id": 11,
            "Score": 0.9878020882606506,
            "Text": "mitral valve",
            "Traits": [],
            "Type": "SYSTEM_ORGAN_SITE"
         },
         {
            "BeginOffset": 318,
            "Category": "ANATOMY",
            "EndOffset": 333,
            "Id": 12,
            "Score": 0.9755495190620422,
            "Text": "tricuspid valve",
            "Traits": [],
            "Type": "SYSTEM_ORGAN_SITE"
         },
         {
            "BeginOffset": 339,
            "Category": "ANATOMY",
            "EndOffset": 354,
            "Id": 13,
            "Score": 0.9806705713272095,
            "Text": "pulmonary valve",
            "Traits": [],
            "Type": "SYSTEM_ORGAN_SITE"
         },
         {
            "Attributes": [
               {
                  "BeginOffset": 384,
                  "Category": "TEST_TREATMENT_PROCEDURE",
                  "EndOffset": 386,
                  "Id": 17,
                  "RelationshipScore": 0.9999762773513794,
                  "RelationshipType": "TEST_VALUE",
                  "Score": 0.913200318813324,
                  "Text": "36",
                  "Traits": [],
                  "Type": "TEST_VALUE"
               },
               {
                  "BeginOffset": 387,
                  "Category": "TEST_TREATMENT_PROCEDURE",
                  "EndOffset": 391,
                  "Id": 18,
                  "RelationshipScore": 1.0,
                  "RelationshipType": "TEST_UNIT",
                  "Score": 0.9949136972427368,
                  "Text": "mmHg",
                  "Traits": [],
                  "Type": "TEST_UNIT"
               }
            ],
            "BeginOffset": 360,
            "Category": "TEST_TREATMENT_PROCEDURE",
            "EndOffset": 380,
            "Id": 14,
            "Score": 0.9283795356750488,
            "Text": "PA systolic pressure",
            "Traits": [],
            "Type": "TEST_NAME"
         },
         {
            "Attributes": [
               {
                  "BeginOffset": 405,
                  "Category": "TEST_TREATMENT_PROCEDURE",
                  "EndOffset": 406,
                  "Id": 20,
                  "RelationshipScore": 0.9998360872268677,
                  "RelationshipType": "TEST_VALUE",
                  "Score": 0.6074267625808716,
                  "Text": "1",
                  "Traits": [],
                  "Type": "TEST_VALUE"
               },
               {
                  "BeginOffset": 409,
                  "Category": "TEST_TREATMENT_PROCEDURE",
                  "EndOffset": 448,
                  "Id": 21,
                  "RelationshipScore": 0.9994669556617737,
                  "RelationshipType": "TEST_VALUE",
                  "Score": 0.9704721570014954,
                  "Text": "Mild mitral and tricuspid regurgitation",
                  "Traits": [],
                  "Type": "TEST_VALUE"
               },
               {
                  "BeginOffset": 454,
                  "Category": "TEST_TREATMENT_PROCEDURE",
                  "EndOffset": 494,
                  "Id": 22,
                  "RelationshipScore": 0.9995278120040894,
                  "RelationshipType": "TEST_VALUE",
                  "Score": 0.9812953472137451,
                  "Text": "Trace aortic and pulmonary regurgitation",
                  "Traits": [],
                  "Type": "TEST_VALUE"
               }
            ],
            "BeginOffset": 393,
            "Category": "TEST_TREATMENT_PROCEDURE",
            "EndOffset": 400,
            "Id": 15,
            "Score": 0.6848580837249756,
            "Text": "DOPPLER",
            "Traits": [],
            "Type": "TEST_NAME"
         },
         {
            "BeginOffset": 414,
            "Category": "MEDICAL_CONDITION",
            "EndOffset": 448,
            "Id": 16,
            "Score": 0.7517498731613159,
            "Text": "mitral and tricuspid regurgitation",
            "Traits": [
               {
                  "Name": "DIAGNOSIS",
                  "Score": 0.8575819730758667
               }
            ],
            "Type": "DX_NAME"
         },
         {
            "BeginOffset": 460,
            "Category": "MEDICAL_CONDITION",
            "EndOffset": 494,
            "Id": 17,
            "Score": 0.4961276650428772,
            "Text": "aortic and pulmonary regurgitation",
            "Traits": [
               {
                  "Name": "DIAGNOSIS",
                  "Score": 0.794151782989502
               }
            ],
            "Type": "DX_NAME"
         }
      ],
      "id": "3"
   }
}